PCBNEW-LibModule-V1  mar 12 feb 2013 23:16:20 CET
# encoding utf-8
$INDEX
ARDUINO_NANO_RIGHT_RAIL
$EndINDEX
$MODULE ARDUINO_NANO_RIGHT_RAIL
Po 0 0 0 15 511ABF15 511ABEC1 ~~
Li ARDUINO_NANO_RIGHT_RAIL
Cd Connecteur 15 pins
Kw CONN DEV
Sc 511ABEC1
AR /511982F7
Op 0 0 0
T0 -4500 -1000 681 428 0 107 N V 21 N "U3"
T1 2500 -1000 600 400 0 100 N V 21 N "ARDUINO_NANO_RIGHT_RAIL"
DS -7500 -500 7500 -500 120 21
DS 7500 -500 7500 500 120 21
DS 7500 500 -7500 500 120 21
DS -7500 500 -7500 -500 120 21
$PAD
Sh "30" R 550 550 0 0 0
Dr 320 0 0
At STD N 00E0FFFF
Ne 0 ""
Po -7000 0
$EndPAD
$PAD
Sh "29" C 550 550 0 0 0
Dr 320 0 0
At STD N 00E0FFFF
Ne 0 ""
Po -6000 0
$EndPAD
$PAD
Sh "28" C 550 550 0 0 0
Dr 320 0 0
At STD N 00E0FFFF
Ne 0 ""
Po -5000 0
$EndPAD
$PAD
Sh "27" C 550 550 0 0 0
Dr 320 0 0
At STD N 00E0FFFF
Ne 0 ""
Po -4000 0
$EndPAD
$PAD
Sh "26" C 550 550 0 0 0
Dr 320 0 0
At STD N 00E0FFFF
Ne 0 ""
Po -3000 0
$EndPAD
$PAD
Sh "25" C 550 550 0 0 0
Dr 320 0 0
At STD N 00E0FFFF
Ne 0 ""
Po -2000 0
$EndPAD
$PAD
Sh "24" C 550 550 0 0 0
Dr 320 0 0
At STD N 00E0FFFF
Ne 0 ""
Po -1000 0
$EndPAD
$PAD
Sh "23" C 550 550 0 0 0
Dr 320 0 0
At STD N 00E0FFFF
Ne 0 ""
Po 0 0
$EndPAD
$PAD
Sh "22" C 550 550 0 0 0
Dr 320 0 0
At STD N 00E0FFFF
Ne 0 ""
Po 1000 0
$EndPAD
$PAD
Sh "21" C 550 550 0 0 0
Dr 320 0 0
At STD N 00E0FFFF
Ne 0 ""
Po 2000 0
$EndPAD
$PAD
Sh "20" C 550 550 0 0 0
Dr 320 0 0
At STD N 00E0FFFF
Ne 0 ""
Po 3000 0
$EndPAD
$PAD
Sh "19" C 550 550 0 0 0
Dr 320 0 0
At STD N 00E0FFFF
Ne 0 ""
Po 4000 0
$EndPAD
$PAD
Sh "18" C 550 550 0 0 0
Dr 320 0 0
At STD N 00E0FFFF
Ne 0 ""
Po 5000 0
$EndPAD
$PAD
Sh "17" C 550 550 0 0 0
Dr 320 0 0
At STD N 00E0FFFF
Ne 0 ""
Po 6000 0
$EndPAD
$PAD
Sh "16" C 550 550 0 0 0
Dr 320 0 0
At STD N 00E0FFFF
Ne 0 ""
Po 7000 0
$EndPAD
$EndMODULE  ARDUINO_NANO_RIGHT_RAIL
$EndLIBRARY
