PCBNEW-LibModule-V1  Mon Feb 11 00:34:38 2013
# encoding utf-8
$INDEX
bornier6
$EndINDEX
$MODULE bornier6
Po 0 0 0 15 51182E78 51182E04 ~~
Li bornier6
Cd Bornier d'alimentation 4 pins
Kw DEV
Sc 51182E04
AR /5117A038
Op 0 0 0
T0 -5000 -2500 1030 629 0 120 N V 21 N "P1"
T1 -4500 3000 1201 825 0 120 N V 21 N "AC_PHASE"
DS -16000 1500 -6000 1500 150 21
DS -6000 1500 -5500 1500 150 21
DS -6000 1000 -16000 1000 150 21
DS -6000 -1500 -16000 -1500 150 21
DS -16000 -1500 -16000 1500 120 21
DS 6000 1500 6000 -1500 120 21
DS -6000 1000 6000 1000 120 21
DS -6000 -1500 6000 -1500 150 21
DS -6000 1500 6000 1500 120 21
$PAD
Sh "2" C 1500 1500 0 0 0
Dr 600 0 0
At STD N 00E0FFFF
Ne 2 "/AC2"
Po -11000 0
$EndPAD
$PAD
Sh "3" C 1500 1500 0 0 0
Dr 600 0 0
At STD N 00E0FFFF
Ne 3 "/AC3"
Po -7000 0
$EndPAD
$PAD
Sh "1" R 1500 1500 0 0 0
Dr 600 0 0
At STD N 00E0FFFF
Ne 1 "/AC1"
Po -15000 0
$EndPAD
$PAD
Sh "4" C 1500 1500 0 0 0
Dr 600 0 0
At STD N 00E0FFFF
Ne 4 "/AC4"
Po -3000 0
$EndPAD
$PAD
Sh "5" C 1500 1500 0 0 0
Dr 600 0 0
At STD N 00E0FFFF
Ne 5 "/AC5"
Po 1000 0
$EndPAD
$PAD
Sh "6" C 1500 1500 0 0 0
Dr 600 0 0
At STD N 00E0FFFF
Ne 6 "/ACIN"
Po 5000 0
$EndPAD
$SHAPE3D
Na "device/bornier_6.wrl"
Sc 1.000000 1.000000 1.000000
Of 0.000000 0.000000 0.000000
Ro 0.000000 0.000000 0.000000
$EndSHAPE3D
$EndMODULE  bornier6
$EndLIBRARY
