PCBNEW-LibModule-V1  sáb 29 jun 2013 18:37:18 CEST
# encoding utf-8
$INDEX
diodo do-41
$EndINDEX
$MODULE diodo do-41
Po 0 0 0 15 51CF0C1F 51CF0D00 ~~
Li diodo do-41
Cd Diode 3 pas
Kw DIODE DEV
Sc 51CF0D00
AR /5117D249
Op 0 0 0
T0 0 -500 400 400 0 80 N V 21 N "D4"
T1 0 0 400 400 0 80 N I 21 N "N4004"
DS 1500 0 1200 0 120 21
DS 1200 0 1200 -400 120 21
DS 1200 -400 -1200 -400 120 21
DS -1200 -400 -1200 0 120 21
DS -1200 0 -1500 0 120 21
DS -1200 0 -1200 400 120 21
DS -1200 400 1200 400 120 21
DS 1200 400 1200 0 120 21
DS 1000 -400 1000 400 120 21
DS 900 400 900 -400 120 21
$PAD
Sh "2" R 591 591 0 0 0
Dr 354 0 0
At STD N 00E0FFFF
Ne 1 "+5V"
Po 1500 0
$EndPAD
$PAD
Sh "1" C 591 591 0 0 0
Dr 354 0 0
At STD N 00E0FFFF
Ne 2 "/C3"
Po -1500 0
$EndPAD
$SHAPE3D
Na "discret/diode.wrl"
Sc 0.300000 0.300000 0.300000
Of 0.000000 0.000000 0.000000
Ro 0.000000 0.000000 0.000000
$EndSHAPE3D
$EndMODULE  diodo do-41
$EndLIBRARY
