PCBNEW-LibModule-V1  mar 12 feb 2013 20:14:23 CET
# encoding utf-8
$INDEX
DSP1A-L2-DC5V
$EndINDEX
$MODULE DSP1A-L2-DC5V
Po 0 0 0 15 511A9485 511A9419 ~~
Li DSP1A-L2-DC5V
Sc 511A9419
AR /5117B251
Op 0 0 0
T0 4000 1000 600 600 0 120 N V 21 N "Y1"
T1 4000 2000 600 600 0 120 N V 21 N "DSP1A-L2-DC5V"
DS 0 0 8000 0 150 21
DS 8000 0 8000 4500 150 21
DS 8000 4500 0 4500 150 21
DS 0 4500 0 0 150 21
$PAD
Sh "1" C 720 720 0 0 0
Dr 520 0 0
At STD N 00E0FFFF
Ne 1 "+5V"
Po 7520 3660
$EndPAD
$PAD
Sh "2" C 720 720 0 0 0
Dr 520 0 0
At STD N 00E0FFFF
Ne 1 "+5V"
Po 6520 3660
$EndPAD
$PAD
Sh "5" C 1040 1040 0 0 0
Dr 520 0 0
At STD N 00E0FFFF
Ne 0 ""
Po 3520 3660
$EndPAD
$PAD
Sh "8" C 1040 1040 0 0 0
Dr 520 0 0
At STD N 00E0FFFF
Ne 0 ""
Po 520 3660
$EndPAD
$PAD
Sh "15" C 720 720 0 0 0
Dr 520 0 0
At STD N 00E0FFFF
Ne 0 ""
Po 6520 660
$EndPAD
$PAD
Sh "16" C 720 720 0 0 0
Dr 520 0 0
At STD N 00E0FFFF
Ne 0 ""
Po 7520 660
$EndPAD
$EndMODULE  DSP1A-L2-DC5V
$EndLIBRARY
