PCBNEW-LibModule-V1  23/7/2006-19:33:21
$INDEX
P***
$EndINDEX
$MODULE P***
Po 0 0 0 15 44BD4C5F 44C3CEC1 ~~
Li P***
Cd Bornier d'alimentation 4 pins
Kw DEV
Sc 44C3CEC1
Op 0 0 0
T0 0 -2500 1030 629 0 120 N V 21 "P***"
T1 0 2500 1201 825 0 120 N V 21 "BORN5"
DS -5000 1500 5000 1500 150 21
DS -5000 1000 5000 1000 150 21
DS -5000 -1500 5000 -1500 150 21
DS -5000 -1500 -5000 1500 120 21
DS 5000 1500 5000 -1500 120 21
$PAD
Sh "2" C 1500 1500 0 0 0
Dr 600 0 0
At STD N 00E0FFFF
Ne 0 ""
Po -2000 0
$EndPAD
$PAD
Sh "3" C 1500 1500 0 0 0
Dr 600 0 0
At STD N 00E0FFFF
Ne 0 ""
Po 0 0
$EndPAD
$PAD
Sh "1" R 1500 1500 0 0 0
Dr 600 0 0
At STD N 00E0FFFF
Ne 0 ""
Po -4000 0
$EndPAD
$PAD
Sh "4" C 1500 1500 0 0 0
Dr 600 0 0
At STD N 00E0FFFF
Ne 0 ""
Po 2000 0
$EndPAD
$PAD
Sh "5" C 1500 1500 0 0 0
Dr 600 0 0
At STD N 00E0FFFF
Ne 0 ""
Po 4000 0
$EndPAD
$SHAPE3D
Na "novos/borner_5.wrl"
Sc 1.000000 1.000000 1.000000
Of 0.000000 0.000000 0.000000
Ro 0.000000 0.000000 0.000000
$EndSHAPE3D
$EndMODULE  P***
$EndLIBRARY
