PCBNEW-LibModule-V1  Sun Feb 10 20:20:02 2013
# encoding utf-8
$INDEX
JS1-5V-F
$EndINDEX
$MODULE JS1-5V-F
Po 0 0 0 15 5117F2D1 00000000 ~~
Li JS1-5V-F
Sc 00000000
AR 
Op 0 0 0
T0 3500 -1000 600 600 0 120 N V 21 N "JS1-5V-F"
T1 3500 1000 600 600 0 120 N V 21 N "VAL**"
DS -1000 -3500 8000 -3500 150 21
DS 8000 -3500 8000 3500 150 21
DS 8000 3500 -1000 3500 150 21
DS -1000 3500 -1000 -3500 150 21
$PAD
Sh "1" C 709 709 0 0 0
Dr 551 0 0
At STD N 00E0FFFF
Ne 0 ""
Po 0 0
$EndPAD
$PAD
Sh "2" C 709 709 0 0 0
Dr 551 0 0
At STD N 00E0FFFF
Ne 0 ""
Po 787 -2362
$EndPAD
$PAD
Sh "3" C 709 709 0 0 0
Dr 551 0 0
At STD N 00E0FFFF
Ne 0 ""
Po 5591 -2362
$EndPAD
$PAD
Sh "4" C 709 709 0 0 0
Dr 551 0 0
At STD N 00E0FFFF
Ne 0 ""
Po 5591 2362
$EndPAD
$PAD
Sh "5" C 709 709 0 0 0
Dr 551 0 0
At STD N 00E0FFFF
Ne 0 ""
Po 787 2362
$EndPAD
$EndMODULE  JS1-5V-F
$EndLIBRARY
