PCBNEW-LibModule-V1  mié 13 feb 2013 00:05:40 CET
# encoding utf-8
$INDEX
LM78XX
$EndINDEX
$MODULE LM78XX
Po 0 0 0 15 511ACAB9 511ACA96 ~~
Li LM78XX
Cd Regulateur TO220 serie LM78xx
Kw TR TO220
Sc 511ACA96
AR /5116DE3F
Op 0 0 0
T0 3000 0 600 400 900 80 N V 21 N "L1"
T1 4000 0 600 400 900 80 N V 21 N "7805"
DS 2000 -2000 2500 -2000 150 21
DS 2500 -2000 2500 2000 150 21
DS 2500 2000 2000 2000 150 21
DS 0 -1000 2000 -1000 120 21
DS 0 0 2000 0 120 21
DS 0 1000 2000 1000 120 21
DS 2000 -1500 2000 2000 120 21
DS 2000 -1500 2000 -2000 120 21
$PAD
Sh "VI" C 700 700 0 0 0
Dr 450 0 0
At STD N 00E0FFFF
Ne 2 "+9V"
Po 0 -1000
$EndPAD
$PAD
Sh "GND" R 700 700 0 0 0
Dr 450 0 0
At STD N 00E0FFFF
Ne 3 "GND"
Po 0 0
$EndPAD
$PAD
Sh "VO" C 700 700 0 0 0
Dr 450 0 0
At STD N 00E0FFFF
Ne 1 "+5V"
Po 0 1000
$EndPAD
$SHAPE3D
Na "discret/to220_horiz.wrl"
Sc 1.000000 1.000000 1.000000
Of 0.000000 0.000000 0.000000
Ro 0.000000 0.000000 0.000000
$EndSHAPE3D
$EndMODULE  LM78XX
$EndLIBRARY
