PCBNEW-LibModule-V1  dom 28 jul 2013 21:27:40 CEST
# encoding utf-8
$INDEX
LOGO
$EndINDEX
$MODULE LOGO
Po 0 0 0 15 00000000 00000000 ~~
Li LOGO
Sc 00000000
AR 
Op 0 0 0
T0 0 8766 600 600 0 120 N I 21 N "G***"
T1 0 -8766 600 600 0 120 N I 21 N "LOGO"
DP 0 0 0 0 391 1 21
Dl 6333 8500
Dl 6289 8499
Dl 6289 -2936
Dl 6283 -3032
Dl 6223 -3096
Dl 6115 -3128
Dl 5962 -3127
Dl 5771 -3094
Dl 5546 -3030
Dl 5291 -2933
Dl 5257 -2918
Dl 4851 -2712
Dl 4449 -2450
Dl 4062 -2139
Dl 3700 -1790
Dl 3374 -1411
Dl 3290 -1299
Dl 3251 -1251
Dl 3243 -1256
Dl 3251 -1283
Dl 3267 -1339
Dl 3296 -1446
Dl 3334 -1588
Dl 3377 -1752
Dl 3385 -1783
Dl 3551 -2551
Dl 3652 -3331
Dl 3690 -4116
Dl 3662 -4899
Dl 3614 -5366
Dl 3550 -5798
Dl 3468 -6223
Dl 3373 -6635
Dl 3265 -7026
Dl 3148 -7387
Dl 3024 -7711
Dl 2896 -7989
Dl 2767 -8214
Dl 2681 -8330
Dl 2573 -8417
Dl 2451 -8439
Dl 2317 -8397
Dl 2195 -8308
Dl 2026 -8129
Dl 1848 -7892
Dl 1663 -7602
Dl 1474 -7266
Dl 1283 -6891
Dl 1094 -6483
Dl 909 -6049
Dl 732 -5596
Dl 563 -5130
Dl 408 -4658
Dl 268 -4186
Dl 145 -3721
Dl 44 -3269
Dl 11 -3100
Dl -14 -2937
Dl -32 -2753
Dl -43 -2535
Dl -48 -2270
Dl -49 -2133
Dl -49 -1907
Dl -47 -1736
Dl -42 -1606
Dl -34 -1506
Dl -19 -1424
Dl 2 -1347
Dl 30 -1263
Dl 40 -1237
Dl 145 -994
Dl 290 -729
Dl 462 -461
Dl 626 -239
Dl 749 -96
Dl 916 80
Dl 1120 281
Dl 1350 501
Dl 1600 731
Dl 1860 964
Dl 2123 1191
Dl 2380 1407
Dl 2623 1602
Dl 2745 1696
Dl 2973 1869
Dl 3228 1731
Dl 3384 1642
Dl 3551 1536
Dl 3696 1436
Dl 3702 1432
Dl 3857 1305
Dl 4036 1140
Dl 4224 952
Dl 4406 756
Dl 4566 569
Dl 4642 472
Dl 4848 176
Dl 5059 -164
Dl 5266 -530
Dl 5380 -750
Dl 5440 -875
Dl 5516 -1042
Dl 5603 -1240
Dl 5699 -1462
Dl 5799 -1697
Dl 5899 -1936
Dl 5996 -2170
Dl 6085 -2389
Dl 6163 -2585
Dl 6225 -2748
Dl 6269 -2868
Dl 6289 -2936
Dl 6289 8499
Dl 4743 8499
Dl 4743 5678
Dl 4711 5624
Dl 4702 5612
Dl 4665 5557
Dl 4602 5453
Dl 4520 5312
Dl 4423 5143
Dl 4319 4957
Dl 4298 4918
Dl 4163 4677
Dl 4053 4488
Dl 3965 4347
Dl 3893 4247
Dl 3833 4183
Dl 3781 4147
Dl 3732 4134
Dl 3721 4134
Dl 3636 4164
Dl 3542 4247
Dl 3448 4373
Dl 3402 4453
Dl 3337 4616
Dl 3287 4814
Dl 3252 5029
Dl 3237 5238
Dl 3244 5423
Dl 3265 5534
Dl 3282 5579
Dl 3299 5581
Dl 3326 5534
Dl 3357 5467
Dl 3393 5377
Dl 3443 5242
Dl 3500 5079
Dl 3559 4906
Dl 3564 4892
Dl 3618 4734
Dl 3667 4601
Dl 3706 4503
Dl 3730 4453
Dl 3733 4450
Dl 3760 4470
Dl 3819 4537
Dl 3901 4641
Dl 4001 4775
Dl 4085 4892
Dl 4261 5137
Dl 4414 5343
Dl 4542 5505
Dl 4642 5621
Dl 4710 5686
Dl 4738 5700
Dl 4743 5678
Dl 4743 8499
Dl 4692 8499
Dl 4316 8498
Dl 4002 8497
Dl 3745 8496
Dl 3540 8494
Dl 3382 8490
Dl 3266 8486
Dl 3187 8481
Dl 3141 8474
Dl 3123 8466
Dl 3127 8456
Dl 3135 8451
Dl 3229 8368
Dl 3321 8224
Dl 3410 8026
Dl 3495 7779
Dl 3572 7490
Dl 3641 7165
Dl 3699 6809
Dl 3745 6430
Dl 3747 6413
Dl 3772 6135
Dl 3793 5863
Dl 3810 5604
Dl 3821 5369
Dl 3826 5169
Dl 3825 5013
Dl 3818 4910
Dl 3815 4895
Dl 3798 4823
Dl 3784 4812
Dl 3765 4854
Dl 3762 4863
Dl 3727 4973
Dl 3680 5147
Dl 3622 5385
Dl 3552 5685
Dl 3471 6048
Dl 3379 6470
Dl 3330 6700
Dl 3272 6968
Dl 3216 7222
Dl 3164 7453
Dl 3119 7651
Dl 3081 7808
Dl 3054 7915
Dl 3044 7950
Dl 2989 8116
Dl 2930 7976
Dl 2877 7825
Dl 2820 7613
Dl 2760 7344
Dl 2698 7025
Dl 2635 6660
Dl 2572 6256
Dl 2509 5816
Dl 2448 5347
Dl 2432 5218
Dl 2403 4981
Dl 2375 4757
Dl 2349 4558
Dl 2327 4396
Dl 2311 4281
Dl 2303 4234
Dl 2288 4177
Dl 2278 4182
Dl 2272 4240
Dl 2269 4346
Dl 2270 4495
Dl 2274 4679
Dl 2282 4892
Dl 2292 5129
Dl 2305 5384
Dl 2320 5649
Dl 2338 5919
Dl 2357 6188
Dl 2378 6450
Dl 2386 6534
Dl 2434 6995
Dl 2488 7395
Dl 2548 7732
Dl 2614 8007
Dl 2686 8217
Dl 2764 8362
Dl 2800 8406
Dl 2895 8500
Dl 2050 8500
Dl 2050 4429
Dl 1915 4387
Dl 1648 4274
Dl 1370 4101
Dl 1082 3872
Dl 790 3590
Dl 497 3259
Dl 207 2885
Dl -75 2470
Dl -208 2255
Dl -350 2011
Dl -367 1980
Dl -367 -2766
Dl -397 -2802
Dl -478 -2838
Dl -592 -2869
Dl -723 -2891
Dl -854 -2900
Dl -1155 -2870
Dl -1476 -2783
Dl -1810 -2642
Dl -2150 -2451
Dl -2487 -2212
Dl -2655 -2074
Dl -2890 -1872
Dl -3637 -1836
Dl -3973 -1819
Dl -4310 -1802
Dl -4642 -1784
Dl -4961 -1767
Dl -5262 -1750
Dl -5537 -1734
Dl -5779 -1719
Dl -5983 -1706
Dl -6142 -1695
Dl -6248 -1686
Dl -6296 -1680
Dl -6297 -1679
Dl -6297 -1654
Dl -6261 -1650
Dl -6163 -1644
Dl -6007 -1636
Dl -5797 -1627
Dl -5540 -1616
Dl -5238 -1604
Dl -4897 -1592
Dl -4521 -1578
Dl -4114 -1565
Dl -3681 -1550
Dl -3545 -1546
Dl -2873 -1524
Dl -2852 -1415
Dl -2808 -1277
Dl -2731 -1119
Dl -2634 -967
Dl -2556 -871
Dl -2480 -800
Dl -2363 -702
Dl -2216 -585
Dl -2045 -455
Dl -1859 -316
Dl -1667 -176
Dl -1476 -40
Dl -1295 85
Dl -1133 194
Dl -998 281
Dl -897 340
Dl -840 365
Dl -837 365
Dl -848 343
Dl -901 279
Dl -990 179
Dl -1111 49
Dl -1259 -106
Dl -1427 -280
Dl -1521 -376
Dl -1713 -572
Dl -1900 -766
Dl -2075 -947
Dl -2228 -1108
Dl -2353 -1241
Dl -2442 -1337
Dl -2458 -1355
Dl -2666 -1592
Dl -2140 -1961
Dl -1812 -2185
Dl -1526 -2368
Dl -1277 -2510
Dl -1061 -2615
Dl -870 -2686
Dl -698 -2726
Dl -558 -2737
Dl -456 -2742
Dl -386 -2754
Dl -367 -2766
Dl -367 1980
Dl -501 1737
Dl -654 1448
Dl -798 1165
Dl -924 904
Dl -1018 693
Dl -1066 587
Dl -1104 511
Dl -1124 481
Dl -1126 481
Dl -1121 518
Dl -1093 606
Dl -1047 735
Dl -985 894
Dl -913 1074
Dl -834 1265
Dl -751 1456
Dl -686 1600
Dl -488 2011
Dl -273 2414
Dl -48 2797
Dl 180 3148
Dl 402 3455
Dl 539 3624
Dl 766 3860
Dl 1009 4063
Dl 1260 4226
Dl 1508 4345
Dl 1744 4414
Dl 1900 4429
Dl 2050 4429
Dl 2050 8500
Dl -1719 8500
Dl -6333 8500
Dl -6333 17
Dl -6333 -8466
Dl 0 -8466
Dl 6333 -8466
Dl 6333 17
Dl 6333 8500
Dl 6333 8500
DP 0 0 0 0 52 1 21
Dl 5795 -2672
Dl 5669 -2278
Dl 5440 -1611
Dl 5197 -998
Dl 4942 -442
Dl 4675 56
Dl 4399 491
Dl 4318 604
Dl 4137 830
Dl 3930 1057
Dl 3710 1272
Dl 3490 1465
Dl 3281 1623
Dl 3095 1736
Dl 2971 1799
Dl 2586 1394
Dl 2458 1259
Dl 2348 1139
Dl 2263 1045
Dl 2212 983
Dl 2200 964
Dl 2216 926
Dl 2261 846
Dl 2325 738
Dl 2364 675
Dl 2507 429
Dl 2658 145
Dl 2804 -153
Dl 2932 -437
Dl 3003 -611
Dl 3053 -736
Dl 3097 -830
Dl 3149 -910
Dl 3218 -991
Dl 3316 -1088
Dl 3433 -1197
Dl 3665 -1407
Dl 3867 -1580
Dl 4055 -1730
Dl 4245 -1870
Dl 4454 -2011
Dl 4471 -2023
Dl 4614 -2111
Dl 4786 -2210
Dl 4976 -2313
Dl 5169 -2413
Dl 5353 -2504
Dl 5516 -2578
Dl 5643 -2631
Dl 5706 -2651
Dl 5795 -2672
Dl 5795 -2672
DP 0 0 0 0 73 1 21
Dl 3266 -4183
Dl 3245 -3390
Dl 3180 -2637
Dl 3070 -1913
Dl 2912 -1205
Dl 2705 -503
Dl 2624 -266
Dl 2555 -75
Dl 2480 122
Dl 2403 317
Dl 2329 499
Dl 2261 658
Dl 2204 784
Dl 2162 868
Dl 2139 899
Dl 2138 899
Dl 2110 875
Dl 2047 809
Dl 1956 709
Dl 1846 585
Dl 1778 508
Dl 1631 336
Dl 1472 147
Dl 1319 -39
Dl 1189 -198
Dl 1175 -216
Dl 804 -639
Dl 373 -1053
Dl 240 -1168
Dl 152 -1248
Dl 88 -1327
Dl 45 -1417
Dl 19 -1531
Dl 6 -1681
Dl 1 -1882
Dl 1 -1950
Dl 21 -2375
Dl 83 -2839
Dl 187 -3342
Dl 333 -3889
Dl 523 -4480
Dl 757 -5118
Dl 808 -5248
Dl 926 -5534
Dl 1064 -5847
Dl 1214 -6173
Dl 1371 -6498
Dl 1528 -6809
Dl 1679 -7093
Dl 1816 -7337
Dl 1895 -7466
Dl 2016 -7648
Dl 2134 -7811
Dl 2245 -7947
Dl 2340 -8049
Dl 2414 -8109
Dl 2460 -8121
Dl 2461 -8120
Dl 2512 -8063
Dl 2576 -7951
Dl 2649 -7795
Dl 2726 -7605
Dl 2805 -7390
Dl 2880 -7162
Dl 2948 -6930
Dl 2981 -6805
Dl 3077 -6383
Dl 3151 -5967
Dl 3206 -5542
Dl 3242 -5093
Dl 3261 -4605
Dl 3266 -4183
Dl 3266 -4183
$EndMODULE  LOGO
$EndLIBRARY
