PCBNEW-LibModule-V1  jue 14 feb 2013 00:11:48 CET
# encoding utf-8
$INDEX
PCH-105D2H
$EndINDEX
$MODULE PCH-105D2H
Po 0 0 0 15 511C1DAD 511C1D7E ~~
Li PCH-105D2H
Sc 511C1D7E
AR /511A3AD1
Op 0 0 0
T0 4000 2000 600 600 0 120 N V 21 N "Y5"
T1 4000 3000 600 600 0 120 N V 21 N "PCH-105D2H,000"
DS 0 0 8000 0 150 21
DS 8000 0 8000 4000 150 21
DS 8000 4000 0 4000 150 21
DS 0 4000 0 0 150 21
$PAD
Sh "1" C 900 900 0 0 0
Dr 520 0 0
At STD N 00E0FFFF
Ne 1 "+5V"
Po 430 450
$EndPAD
$PAD
Sh "2" C 900 900 0 0 0
Dr 520 0 0
At STD N 00E0FFFF
Ne 5 "/C2"
Po 430 3450
$EndPAD
$PAD
Sh "3" C 1280 1280 0 0 0
Dr 640 0 0
At STD N 00E0FFFF
Ne 4 "/AC6"
Po 4430 450
$EndPAD
$PAD
Sh "5" C 1280 1280 0 0 0
Dr 640 0 0
At STD N 00E0FFFF
Ne 3 "/AC5"
Po 6430 3450
$EndPAD
$PAD
Sh "4" C 1280 1280 0 0 0
Dr 640 0 0
At STD N 00E0FFFF
Ne 2 "/AC4"
Po 7430 450
$EndPAD
$EndMODULE  PCH-105D2H
$EndLIBRARY
