PCBNEW-LibModule-V1  mar 12 feb 2013 00:10:05 CET
# encoding utf-8
$INDEX
RJ45-MAG
$EndINDEX
$MODULE RJ45-MAG
Po 0 0 0 15 51197A34 51197A2A ~~
Li RJ45-MAG
Kw RJ45-MAG
Sc 51197A2A
AR /5116D9F9
Op 0 0 0
T0 -20 2598 600 600 0 120 N V 21 N "J1"
T1 56 -40 394 394 0 80 N V 21 N "RS485-IN"
DS -3000 3100 3000 3100 50 21
DS 3000 3100 3000 -4000 50 21
DS 3000 -4000 -3000 -4000 50 21
DS -3000 -4000 -3000 3100 50 21
$PAD
Sh "Hole" C 1417 1417 0 0 0
Dr 1280 0 0
At STD N 00F0FFFF
Ne 0 ""
Po 2244 -98
$EndPAD
$PAD
Sh "Hole" C 1417 1417 0 0 0
Dr 1280 0 0
At STD N 00F0FFFF
Ne 0 ""
Po -2244 -79
$EndPAD
$PAD
Sh "1" R 700 700 0 0 0
Dr 354 0 0
At STD N 00E0FFFF
Ne 3 "N-000024"
Po -1732 -2579
$EndPAD
$PAD
Sh "2" C 800 800 0 0 0
Dr 354 0 0
At STD N 00E0FFFF
Ne 4 "N-000027"
Po -1260 -3583
$EndPAD
$PAD
Sh "3" C 800 800 0 0 0
Dr 354 0 0
At STD N 00E0FFFF
Ne 1 "+9V"
Po -748 -2579
$EndPAD
$PAD
Sh "4" C 800 800 0 0 0
Dr 354 0 0
At STD N 00E0FFFF
Ne 0 ""
Po -236 -3583
$EndPAD
$PAD
Sh "5" C 800 800 0 0 0
Dr 354 0 0
At STD N 00E0FFFF
Ne 0 ""
Po 236 -2579
$EndPAD
$PAD
Sh "6" C 800 800 0 0 0
Dr 354 0 0
At STD N 00E0FFFF
Ne 2 "GND"
Po 748 -3583
$EndPAD
$PAD
Sh "7" C 800 800 0 0 0
Dr 354 0 0
At STD N 00E0FFFF
Ne 0 ""
Po 1260 -2579
$EndPAD
$PAD
Sh "8" C 800 800 0 0 0
Dr 354 0 0
At STD N 00E0FFFF
Ne 0 ""
Po 1732 -3583
$EndPAD
$SHAPE3D
Na "connectors/RJ45_8.wrl"
Sc 0.400000 0.400000 0.400000
Of 0.000000 0.000000 0.000000
Ro 0.000000 0.000000 0.000000
$EndSHAPE3D
$EndMODULE  RJ45-MAG
$EndLIBRARY
