PCBNEW-LibModule-V1  mié 24 jul 2013 13:22:54 CEST
# encoding utf-8
$INDEX
TO220GDS
$EndINDEX
$MODULE TO220GDS
Po 0 0 0 15 51EFB8D8 51EFB8BB ~~
Li TO220GDS
Cd Transistor VMOS Irf530, TO220
Kw TR TO220 DEV
Sc 51EFB8BB
AR /5116DE3F
Op 0 0 0
T0 2750 0 600 400 900 80 N V 21 N "L1"
T1 4250 0 600 400 900 80 N V 21 N "7805"
DS 0 -1000 2000 -1000 120 21
DS 0 0 2000 0 120 21
DS 0 1000 2000 1000 120 21
DS 2000 -2000 8000 -2000 120 21
DS 8000 -2000 8000 2000 120 21
DS 8000 2000 2000 2000 120 21
DS 2000 2000 2000 -2000 120 21
DS 5000 2000 5000 -2000 120 21
$PAD
Sh "GND" R 3500 3500 0 0 0
Dr 1200 0 0
At STD N 00F0FFFF
Ne 0 ""
Po 6500 0
$EndPAD
$PAD
Sh "VI" C 700 700 0 0 0
Dr 450 0 0
At STD N 00E0FFFF
Ne 0 ""
Po 0 -1000
$EndPAD
$PAD
Sh "GND" C 700 700 0 0 0
Dr 450 0 0
At STD N 00E0FFFF
Ne 0 ""
Po 0 0
$EndPAD
$PAD
Sh "VO" R 700 700 0 0 0
Dr 450 0 0
At STD N 00E0FFFF
Ne 0 ""
Po 0 1000
$EndPAD
$SHAPE3D
Na "discret/to220_horiz.wrl"
Sc 1.000000 1.000000 1.000000
Of 0.000000 0.000000 0.000000
Ro 0.000000 0.000000 0.000000
$EndSHAPE3D
$EndMODULE  TO220GDS
$EndLIBRARY
