PCBNEW-LibModule-V1  jue 14 feb 2013 16:36:01 CET
# encoding utf-8
$INDEX
BC548
$EndINDEX
$MODULE BC548
Po 0 0 0 15 511D042A 511D03EA ~~
Li BC548
Cd Transistor TO92 brochage type BC548
Kw TR TO92
Sc 511D03EA
AR /5117C939
Op 0 0 0
T0 -500 1500 400 400 0 80 N V 21 N "Q3"
T1 -750 0 400 400 900 80 N V 21 N "BC548"
DS 500 -1000 500 1000 150 21
DS 500 1000 0 1500 150 21
DS 0 1500 -500 1500 150 21
DS -500 1500 -1000 500 150 21
DS -1000 500 -1000 -500 150 21
DS -1000 -500 -500 -1500 150 21
DS -500 -1500 0 -1500 150 21
DS 0 -1500 500 -1000 150 21
$PAD
Sh "1" R 550 550 0 0 0
Dr 320 0 0
At STD N 00E0FFFF
Ne 1 "/C6"
Po 0 -1200
$EndPAD
$PAD
Sh "2" C 550 550 0 0 0
Dr 320 0 0
At STD N 00E0FFFF
Ne 3 "N-000037"
Po 0 0
$EndPAD
$PAD
Sh "3" C 550 550 0 0 0
Dr 320 0 0
At STD N 00E0FFFF
Ne 2 "GND"
Po 0 1050
$EndPAD
$SHAPE3D
Na "discret/to98.wrl"
Sc 1.000000 1.000000 1.000000
Of 0.000000 0.000000 0.000000
Ro 0.000000 0.000000 -45.000000
$EndSHAPE3D
$EndMODULE  BC548
$EndLIBRARY
