eeschema (2012-apr-16-27)-stable  >> Creation date: lun 11 feb 2013 13:23:00 CET

#Componentes ( orden = Referencia )
| C1         0.33uF      
| C2         0.1uF       
| D1         N4004       
| D2         N4004       
| D3         N4004       
| D4         N4004       
| D5         N4004       
| D6         N4004       
| D7         N4004       
| D8         N4004       
| F1         FUSE        
| J1         RS485-IN    
| J2         RS485-OUT   
| L1         7805        
| P1         AC1         
| P2         CURTAINS    
| P3         LIGHTS      
| P4         INPUTS      
| Q1         BC548       
| Q2         BC548       
| Q3         BC548       
| Q4         BC548       
| Q5         BC548       
| Q6         BC548       
| Q7         BC548       
| Q8         BC548       
| R1         1k          
| R2         1k          
| R3         1k          
| R4         1k          
| R5         1k          
| R6         1k          
| R7         1k          
| R8         D12         
| R9         120         
| U1         MAX485      
| U2         ARDUINO_NANO_LEFT_RAIL
| U3         ARDUINO_NANO_RIGHT_RAIL
| Y1         DSP1A-L2-DC5V
| Y2         DSP1A-L2-DC5V
| Y3         DSP1A-L2-DC5V
| Y4         JS1-5V-F    
| Y5         JS1-5V-F    
#Fin Componentes

#Componentes ( orden = Valor )
| 0.1uF        C2        
| 0.33uF       C1        
| 120          R9        
| 1k           R1        
| 1k           R2        
| 1k           R3        
| 1k           R4        
| 1k           R5        
| 1k           R6        
| 1k           R7        
| 7805         L1        
| AC1          P1        
| ARDUINO_NANO_LEFT_RAIL U2        
| ARDUINO_NANO_RIGHT_RAIL U3        
| BC548        Q1        
| BC548        Q2        
| BC548        Q3        
| BC548        Q4        
| BC548        Q5        
| BC548        Q6        
| BC548        Q7        
| BC548        Q8        
| CURTAINS     P2        
| D12          R8        
| DSP1A-L2-DC5V Y1        
| DSP1A-L2-DC5V Y2        
| DSP1A-L2-DC5V Y3        
| FUSE         F1        
| INPUTS       P4        
| JS1-5V-F     Y4        
| JS1-5V-F     Y5        
| LIGHTS       P3        
| MAX485       U1        
| N4004        D1        
| N4004        D2        
| N4004        D3        
| N4004        D4        
| N4004        D5        
| N4004        D6        
| N4004        D7        
| N4004        D8        
| RS485-IN     J1        
| RS485-OUT    J2        
#Fin Componentes

#Fin de Lista
